Applied R in the Classroom
…
Environment With Gapminder Data

Identifying data types

When reading in data, the read_csv command does the best it can to identify the datatype of each column of data.

Simply outputting the code can tell students a bundle of information about the data just loaded. Lets look at the output below.

gapminder

## # A tibble: 1,704 x 6
##    country     continent  year lifeExp      pop gdpPercap
##    <chr>       <chr>     <dbl>   <dbl>    <dbl>     <dbl>
##  1 Afghanistan Asia       1952    28.8  8425333      779.
##  2 Afghanistan Asia       1957    30.3  9240934      821.
##  3 Afghanistan Asia       1962    32.0 10267083      853.
##  4 Afghanistan Asia       1967    34.0 11537966      836.
##  5 Afghanistan Asia       1972    36.1 13079460      740.
##  6 Afghanistan Asia       1977    38.4 14880372      786.
##  7 Afghanistan Asia       1982    39.9 12881816      978.
##  8 Afghanistan Asia       1987    40.8 13867957      852.
##  9 Afghanistan Asia       1992    41.7 16317921      649.
## 10 Afghanistan Asia       1997    41.8 22227415      635.
## # ... with 1,694 more rows
…
dplyr Verbs

Almost any time a user is working with data, they will need to manipulate that data in some way. In this next section, we will introduce the main 6 dplyr verbs to help wrangle data to gain additional insight. These verbs, select, filter, mutate, group_by, summarize, arrange are explained in detail below.

In order to motivate use of the aformentioned verbs, well look to answer the following question:

Verb 1: select

To begin, we only need to work with certain columns. The relevent columns to this question are country, year, pop, and gdpPercap. We can make this selection using the select function. The first argument in the select function is the data we which to select from. The subsequent arguments are the names of the columns from the data we wish to select. In the code below, we save our selected columns into a new tibble called gapminder_selected.

gapminder_selected = select(gapminder, country, year, pop, gdpPercap)

gapminder_selected

## # A tibble: 1,704 x 4
##    country      year      pop gdpPercap
##    <chr>       <dbl>    <dbl>     <dbl>
##  1 Afghanistan  1952  8425333      779.
##  2 Afghanistan  1957  9240934      821.
##  3 Afghanistan  1962 10267083      853.
##  4 Afghanistan  1967 11537966      836.
##  5 Afghanistan  1972 13079460      740.
##  6 Afghanistan  1977 14880372      786.
##  7 Afghanistan  1982 12881816      978.
##  8 Afghanistan  1987 13867957      852.
##  9 Afghanistan  1992 16317921      649.
## 10 Afghanistan  1997 22227415      635.
## # ... with 1,694 more rows

Once we view the data, we see that we now have 1704 rows with 4 columns.

Verb 2: filter

To further answer our question, we need to filter our data down to the years of interest. We can achieve this goal using the filter function. Like the select function, the first argument in the filter function is the data and subsequent argument is the logical statement of which you wish to filter the data. In the code below, we filter our selected data and save our filtered data into a new tibble called gapminder_filtered.

gapminder_filtered = filter(gapminder_selected, year >= 1980)

gapminder_filtered

## # A tibble: 852 x 4
##    country      year      pop gdpPercap
##    <chr>       <dbl>    <dbl>     <dbl>
##  1 Afghanistan  1982 12881816      978.
##  2 Afghanistan  1987 13867957      852.
##  3 Afghanistan  1992 16317921      649.
##  4 Afghanistan  1997 22227415      635.
##  5 Afghanistan  2002 25268405      727.
##  6 Afghanistan  2007 31889923      975.
##  7 Albania      1982  2780097     3631.
##  8 Albania      1987  3075321     3739.
##  9 Albania      1992  3326498     2497.
## 10 Albania      1997  3428038     3193.
## # ... with 842 more rows

Once we view the data, we see that our data now consist of years since 1980.

Verb 3: mutate

The next step in answering our question is creating a column that contains the information of interest. The mutate function creats new columns according to a specific function that we provide. To answer our question, we need to determine the GDP in each year. To find the GDP, we need to multiply the gdpPercap by the pop. Similar to the previou two verbs, the first argument in the mutate function is the data. Subsequent arguments are columns you wish to create with corresponding formulas. In the code below, we mutate our filtered data and save our mutated data into a new tibble called gapminder_mutated.

gapminder_mutated = mutate(gapminder_filtered, GDP = gdpPercap * pop)

gapminder_mutated

## # A tibble: 852 x 5
##    country      year      pop gdpPercap          GDP
##    <chr>       <dbl>    <dbl>     <dbl>        <dbl>
##  1 Afghanistan  1982 12881816      978. 12598563401.
##  2 Afghanistan  1987 13867957      852. 11820990309.
##  3 Afghanistan  1992 16317921      649. 10595901589.
##  4 Afghanistan  1997 22227415      635. 14121995875.
##  5 Afghanistan  2002 25268405      727. 18363410424.
##  6 Afghanistan  2007 31889923      975. 31079291949.
##  7 Albania      1982  2780097     3631. 10094200603.
##  8 Albania      1987  3075321     3739. 11498418358.
##  9 Albania      1992  3326498     2497.  8307722183.
## 10 Albania      1997  3428038     3193. 10945912519.
## # ... with 842 more rows

Once we view the data, we see the new column, GDP, has been added to the end of our tibble.

Verb 4: group_by

The next step in answering our question will be to group our data by the topic of interest. In this instance, since we want to know GDP by country, we need to group or data by country. A way to conceptualize this step is to think of placing each group of data into a specific room. In subsequent steps we will apply a function to each group of data. Just like the previous verbs, the first argument in the group_by function is the data. The following arguments are the columns you wish to group by. In the code below, we group our mutated data and save our grouped data into a new tibble called gapminder_grouped.

gapminder_grouped =  group_by(gapminder_mutated, country) 

gapminder_grouped

## # A tibble: 852 x 5
## # Groups:   country [142]
##    country      year      pop gdpPercap          GDP
##    <chr>       <dbl>    <dbl>     <dbl>        <dbl>
##  1 Afghanistan  1982 12881816      978. 12598563401.
##  2 Afghanistan  1987 13867957      852. 11820990309.
##  3 Afghanistan  1992 16317921      649. 10595901589.
##  4 Afghanistan  1997 22227415      635. 14121995875.
##  5 Afghanistan  2002 25268405      727. 18363410424.
##  6 Afghanistan  2007 31889923      975. 31079291949.
##  7 Albania      1982  2780097     3631. 10094200603.
##  8 Albania      1987  3075321     3739. 11498418358.
##  9 Albania      1992  3326498     2497.  8307722183.
## 10 Albania      1997  3428038     3193. 10945912519.
## # ... with 842 more rows

The reader will notice that there apears to be no change to the data. This is mostly true as we have simply told R that we would like to apply future functions over each group of data instead of over the entire tibble. The only difference in output is the a note explaining the what the data has been grouped into and the number of groups. In this case, it explains the data is grouped by continent and that there are 5 groups.

Verb 5: summarise

Next in order to determine the average GDP by country, we need to apply a function to each group we have identified. In this instance, we will need to take the average GDP over each continent. Since weve already grouped by country, we simply need to apply the summarise function. Like the previous verbs, the first argument in the summarise function is the data. The following arguments are the function you would like to apply to each group. In the code below, we summarise our grouped data and save our summarised data into a new tibble called gapminder_summarised.

gapminder_summarised = summarise(gapminder_grouped, AVG_GDP = mean(GDP))

gapminder_summarised

## # A tibble: 142 x 2
##    country           AVG_GDP
##    <chr>               <dbl>
##  1 Afghanistan  16430025591.
##  2 Albania      13062766192.
##  3 Algeria     148613140752.
##  4 Angola       28940373965.
##  5 Argentina   353071702131.
##  6 Australia   477639321504.
##  7 Austria     225388780040.
##  8 Bahrain      12397050418.
##  9 Bangladesh  119954904364.
## 10 Belgium     271944511091.
## # ... with 132 more rows

We now have an answer to our question. The tibble above shows the average GDP per country since 1980.

Verb 6: arrange

However, we can refine our data to provide more inisght. Currently, our data is sorted alphabetically by country. This does not provide much insight. We can use the arrange function to sort the data by average GDP; both assending and descending. Like all other verbs, the first argument in the arrange function is the data. The following argument is the column you wish to sort by. In the code below, we arrange our summarised data and save our arranged data into a new tibble called gapminder_arranged.

gapminder_arragned = arrange(gapminder_summarised, AVG_GDP)

gapminder_arragned

## # A tibble: 142 x 2
##    country                      AVG_GDP
##    <chr>                          <dbl>
##  1 Sao Tome and Principe     213138942.
##  2 Comoros                   585013190.
##  3 Guinea-Bissau             788263198.
##  4 Gambia                    806874307.
##  5 Djibouti                  894915489.
##  6 Liberia                  1274437021.
##  7 Lesotho                  2041066151.
##  8 Equatorial Guinea        2131596160.
##  9 Eritrea                  2545841271.
## 10 Central African Republic 2670573945.
## # ... with 132 more rows

We see, from the output above, the countries with the smalled average GDP since 1980.

It may be more interesting, however, to sort the average GDP in descending order so we can learn the countries with the highest average GDP. To do this we simply place a - sign in front of AVG_GDP in the call above.

gapminder_arragned_descending = arrange(gapminder_summarised, -AVG_GDP)

gapminder_arragned_descending

## # A tibble: 142 x 2
##    country        AVG_GDP
##    <chr>            <dbl>
##  1 United States  9.20e12
##  2 Japan          3.28e12
##  3 China          2.96e12
##  4 Germany        2.20e12
##  5 United Kingdom 1.48e12
##  6 France         1.48e12
##  7 India          1.39e12
##  8 Italy          1.33e12
##  9 Brazil         1.27e12
## 10 Mexico         9.26e11
## # ... with 132 more rows
…
After helping learners see how each function works we can introduce the pipe operator (%>%) that can be used to chain together commands and pass the results of one functiopn directly into the next function. This can result in very logical data manipulation steps that are easy to learn and easy to understand:

gapminder_arragned_descending_chained =
  gapminder %>%
  select(country, year, pop, gdpPercap) %>%
  filter(year >= 1980) %>%
  mutate(GDP = gdpPercap * pop) %>%
  group_by(country) %>%
  summarise(AVG_GDP = mean(GDP)) %>%
  arrange(-AVG_GDP)

gapminder_arragned_descending_chained

## # A tibble: 142 x 2
##    country        AVG_GDP
##    <chr>            <dbl>
##  1 United States  9.20e12
##  2 Japan          3.28e12
##  3 China          2.96e12
##  4 Germany        2.20e12
##  5 United Kingdom 1.48e12
##  6 France         1.48e12
##  7 India          1.39e12
##  8 Italy          1.33e12
##  9 Brazil         1.27e12
## 10 Mexico         9.26e11
## # ... with 132 more rows
…
